%YAML 1.1
%TAG !u! tag:unity3d.com,2011:
--- !u!1001 &100100000
Prefab:
  m_ObjectHideFlags: 1
  serializedVersion: 2
  m_Modification:
    m_TransformParent: {fileID: 0}
    m_Modifications: []
    m_RemovedComponents: []
  m_ParentPrefab: {fileID: 0}
  m_RootGameObject: {fileID: 1615920726595980}
  m_IsPrefabParent: 1
--- !u!1 &1615920726595980
GameObject:
  m_ObjectHideFlags: 0
  m_PrefabParentObject: {fileID: 0}
  m_PrefabInternal: {fileID: 100100000}
  serializedVersion: 5
  m_Component:
  - component: {fileID: 4922849221721300}
  - component: {fileID: 114534548342720576}
  m_Layer: 0
  m_Name: UNETChess
  m_TagString: Untagged
  m_Icon: {fileID: 0}
  m_NavMeshLayer: 0
  m_StaticEditorFlags: 0
  m_IsActive: 1
--- !u!4 &4922849221721300
Transform:
  m_ObjectHideFlags: 1
  m_PrefabParentObject: {fileID: 0}
  m_PrefabInternal: {fileID: 100100000}
  m_GameObject: {fileID: 1615920726595980}
  m_LocalRotation: {x: 0, y: 0, z: 0, w: 1}
  m_LocalPosition: {x: 1.0420532, y: -17.657326, z: 40.144634}
  m_LocalScale: {x: 1, y: 1, z: 1}
  m_Children: []
  m_Father: {fileID: 0}
  m_RootOrder: 0
  m_LocalEulerAnglesHint: {x: 0, y: 0, z: 0}
--- !u!114 &114534548342720576
MonoBehaviour:
  m_ObjectHideFlags: 1
  m_PrefabParentObject: {fileID: 0}
  m_PrefabInternal: {fileID: 100100000}
  m_GameObject: {fileID: 1615920726595980}
  m_Enabled: 1
  m_EditorHideFlags: 0
  m_Script: {fileID: 11500000, guid: 509652e462a573b41bbcbacfba4655b9, type: 3}
  m_Name: 
  m_EditorClassIdentifier: 
  currentPlayerName: 
  currentPlayerCountry: 
  secondPlayerName: 
  secondPlayerCountry: 
  m_ConnectionIds: 
  MatchIDUlong: 0
  clientName: 
  isHost: 0
  myPlayerControl: {fileID: 0}
  myManager: {fileID: 0}
  player1Promoter: {fileID: 0}
  player2Promoter: {fileID: 0}
  pieceTab1: {fileID: 0}
  pieceTab2: {fileID: 0}
  pieceTabTemp: {fileID: 0}
  Team1InspectorObject: {fileID: 0}
  Team2InspectorObject: {fileID: 0}
  Player1Queen: {fileID: 0}
  Player1Rook: {fileID: 0}
  Player1Knight: {fileID: 0}
  Player1Bishop: {fileID: 0}
  Player2Queen: {fileID: 0}
  Player2Rook: {fileID: 0}
  Player2Knight: {fileID: 0}
  Player2Bishop: {fileID: 0}
  roundTime: 0
